<svg width="23" height="23" viewBox="0 0 23 23" fill="none" xmlns="http://www.w3.org/2000/svg">
<g clip-path="url(#clip0)">
<path d="M18.1382 3.81857H4.77317C3.71871 3.81857 2.86389 4.67339 2.86389 5.72786V19.0928C2.86389 20.1473 3.71871 21.0021 4.77317 21.0021H18.1382C19.1926 21.0021 20.0474 20.1473 20.0474 19.0928V5.72786C20.0474 4.67339 19.1926 3.81857 18.1382 3.81857Z" stroke="white" stroke-width="2" stroke-linecap="round" stroke-linejoin="round"/>
<path d="M15.2743 1.90927V5.72784" stroke="white" stroke-width="2" stroke-linecap="round" stroke-linejoin="round"/>
<path d="M7.63708 1.90927V5.72784" stroke="white" stroke-width="2" stroke-linecap="round" stroke-linejoin="round"/>
<path d="M2.86389 9.54642H20.0474" stroke="white" stroke-width="2" stroke-linecap="round" stroke-linejoin="round"/>
</g>
<defs>
<clipPath id="clip0">
<rect width="22.9114" height="22.9114" fill="white"/>
</clipPath>
</defs>
</svg>
