<svg width="17" height="20" viewBox="0 0 17 20" fill="none" xmlns="http://www.w3.org/2000/svg">
<path d="M8.40575 9.27536C10.9671 9.27536 13.0434 7.199 13.0434 4.63768C13.0434 2.07636 10.9671 0 8.40575 0C5.84443 0 3.76807 2.07636 3.76807 4.63768C3.76807 7.199 5.84443 9.27536 8.40575 9.27536Z" fill="white"/>
<path d="M8.4058 11.5942C3.7634 11.5942 0 15.3576 0 20H16.8116C16.8116 15.3576 13.0482 11.5942 8.4058 11.5942Z" fill="white"/>
</svg>
